<svg xmlns="http://www.w3.org/2000/svg" viewBox="0 0 29 31" width="29" height="31">
  <title>Equipment</title>
  <g fill="none" fill-rule="evenodd">
    <path fill="#73CF99" fill-rule="nonzero" d="M23.4155405.0066534c-.2216601.02601092-.4218769.14653874-.5504667.33137358-.1285897.18483484-.173363.41645556-.1230974.63680723l.6735641 3.16520646C20.9451661 2.1833431 17.8050066.81347074 14.5.81347074 6.50115416.81347074 0 7.40269677 0 15.5099588c0 1.2754566.07926288 2.5424726.41638514 3.7858352.11500529.4249978.54814471.6750457.9674685.5585118.41932378-.1165339.66605903-.5555252.55111258-.9805394-.28199091-1.0400744-.36739865-2.1596092-.36739865-3.3638076 0-7.24860582 5.78076124-13.10767854 12.93243243-13.10767854 3.0310886 0 6.0376832 1.38035493 8.3277027 3.30174478l-3.6862331.27307664c-.2984489-.0060079-.5743594.16031435-.71163.42897925-.1372705.2686649-.1120712.59303281.0649942.83661145.1770655.24357864.4752588.36408329.769102.31080624l5.4864865-.39720238c.2256389-.01661723.433191-.13123336.5693065-.31438706.1361154-.1831537.1875189-.41698212.1409976-.64138116L24.2850507.6396947c-.0803916-.41000182-.4604954-.68673394-.8695102-.6330413z"/>
    <path fill="#4FA67B" d="M27.7508446 11.12832c-.2350282.0200145-.4486721.1462265-.581686.3436362-.1330139.1974096-.1712573.4450306-.1041248.6741949.2819893 1.0400268.3673986 2.1596013.3673986 3.3638077 0 7.2485859-5.7807612 13.1076785-12.9324324 13.1076785-3.0450521 0-6.06962005-1.3818242-8.36444257-3.3141573l3.72297298-.2730767c.29844889.0060079.57435939-.1603143.71162999-.4289792.1372705-.2686649.1120712-.5930328-.0649942-.8366115-.1770655-.2435786-.4752588-.3640833-.76910201-.3108062l-5.48648649.3972024c-.22563888.0166172-.43319102.1312333-.56930646.314387-.13611545.1831537-.18751896.4169822-.14099759.6413812l1.17567567 5.5608333c.05906651.2793789.26070036.505597.52894804.5934402.26824768.0878432.56235598.023966.77153716-.1675697.20918118-.1915357.30165563-.4816311.24258913-.76101l-.67356419-3.1403813C8.05483386 28.8462623 11.1949934 30.2064468 14.5 30.2064468c7.9988458 0 14.5-6.58923 14.5-14.696488 0-1.2754963-.0792613-2.5424646-.4163851-3.7858352-.0948952-.379399-.4482783-.6322261-.8327703-.5958036z"/>
  </g>
</svg>